{
  "components": {
    "schemas": {
      "UserDto": {
        "type": "object",
        "properties": {
          "firstName": {
            "type": "string"
          },
          "lastName": {
            "type": "string"
          },
          "userPassword": {
            "type": "string"
          },
          "gender": {
            "type": "string",
            "enum": [
              "Male",
              "Female"
            ]
          },
          "contactNumber": {
            "type": "string"
          },
          "userName": {
            "type": "string"
          },
          "userId": {
            "format": "int32",
            "type": "integer"
          }
        }
      }
    }
  },
  "servers": [
    {
      "description": "Generated server url",
      "url": "http://localhost:8090/anymindgroup"
    }
  ],
  "openapi": "3.0.1",
  "paths": {
    "/api/v1/user/login": {
      "post": {
        "operationId": "registerUser_1",
        "responses": {
          "200": {
            "description": "OK",
            "content": {
              "*/*": {
                "schema": {
                  "$ref": "#/components/schemas/UserDto"
                }
              }
            }
          }
        },
        "parameters": [
          {
            "schema": {
              "type": "string"
            },
            "in": "query",
            "name": "userName",
            "required": true
          }
        ],
        "tags": [
          "login-controller"
        ]
      }
    },
    "/api/v1/user/register": {
      "post": {
        "requestBody": {
          "content": {
            "application/json": {
              "schema": {
                "$ref": "#/components/schemas/UserDto"
              }
            }
          },
          "required": true
        },
        "operationId": "registerUser",
        "responses": {
          "200": {
            "description": "OK",
            "content": {
              "*/*": {
                "schema": {
                  "type": "object"
                }
              }
            }
          }
        },
        "tags": [
          "user-controller"
        ]
      }
    },
    "/api/v1/user/{userName}": {
      "get": {
        "operationId": "getUserByUserName",
        "responses": {
          "200": {
            "description": "OK",
            "content": {
              "application/json": {
                "schema": {
                  "$ref": "#/components/schemas/UserDto"
                }
              }
            }
          }
        },
        "parameters": [
          {
            "schema": {
              "type": "string"
            },
            "in": "path",
            "name": "userName",
            "required": true
          }
        ],
        "tags": [
          "user-controller"
        ]
      }
    },
    "/api/v1/user/registered/{userName}": {
      "get": {
        "operationId": "isAllReadyRegistered",
        "responses": {
          "200": {
            "description": "OK",
            "content": {
              "application/json": {
                "schema": {
                  "type": "boolean"
                }
              }
            }
          }
        },
        "parameters": [
          {
            "schema": {
              "type": "string"
            },
            "in": "path",
            "name": "userName",
            "required": true
          }
        ],
        "tags": [
          "user-controller"
        ]
      }
    },
    "/api/v1/users": {
      "get": {
        "operationId": "getUsersList",
        "responses": {
          "200": {
            "description": "OK",
            "content": {
              "application/json": {
                "schema": {
                  "type": "object"
                }
              }
            }
          }
        },
        "tags": [
          "user-controller"
        ]
      }
    }
  },
  "info": {
    "title": "OpenAPI definition",
    "version": "v0"
  }
}